{
    "KPlugin": {
        "Description": "Manage mediacenter audio devices",
        "Description[ar]": "إدارة أجهزة الصوت في مركز الوسائط",
        "Description[az]": "Medi mərkəzi səs cihazlarını idarə etmək",
        "Description[bg]": "Управление на медийни устройства",
        "Description[ca@valencia]": "Gestiona els dispositius d'àudio del centre multimèdia",
        "Description[ca]": "Gestiona els dispositius d'àudio del centre multimèdia",
        "Description[cs]": "Spravovat zařízení audio mediálního centra",
        "Description[de]": "Audio-Geräte von Mediencenter verwalten",
        "Description[en_GB]": "Manage mediacenter audio devices",
        "Description[eo]": "Mastrumu mediacentrajn aŭdio-aparatojn",
        "Description[es]": "Administrar dispositivos de audio de mediatecas",
        "Description[eu]": "Kudeatu hedabide-guneko audio gailuak",
        "Description[fi]": "Hallitse mediakeskuksen äänilaitteita",
        "Description[fr]": "Gérer les périphériques audio du centre multimédia",
        "Description[gl]": "Xestione os dispositivos de son dun centro multimedia.",
        "Description[ia]": "Gere dispositivos de audio de mediacenter",
        "Description[it]": "Gestisci i dispositivi audio del centro multimediale",
        "Description[ka]": "მედიაცენტრის აუდიო მოწყობილობების მართვა",
        "Description[ko]": "미디어 센터 오디오 장치 관리",
        "Description[nl]": "Audio-apparaten in mediacenter beheren",
        "Description[nn]": "Handsam lydeiningar for mediesenter",
        "Description[pl]": "Zarządzaj urządzeniami dźwiękowymi zestawu multimedialnego",
        "Description[pt]": "Gerir os dispositivos de áudio do centro multimédia",
        "Description[pt_BR]": "Gerencie dispositivos de áudio de centros de mídia",
        "Description[ru]": "Управление звуковыми устройствами медиацентра",
        "Description[sl]": "Upravljaj zvočne naprave media centra",
        "Description[sv]": "Hantera mediacenter ljudenheter",
        "Description[tr]": "Ortam merkezi ses aygıtlarını yapılandır",
        "Description[uk]": "Керування звуковими пристроями медіацентру",
        "Description[x-test]": "xxManage mediacenter audio devicesxx",
        "Description[zh_CN]": "管理媒体中心音频设备",
        "Description[zh_TW]": "管理媒體中心的音效裝置",
        "FormFactors": [
            "mediacenter"
        ],
        "Icon": "audio-volume-high",
        "Name": "Audio",
        "Name[ar]": "الصوت",
        "Name[az]": "Səs",
        "Name[bg]": "Аудио",
        "Name[ca@valencia]": "Àudio",
        "Name[ca]": "Àudio",
        "Name[cs]": "Audio",
        "Name[de]": "Audio",
        "Name[en_GB]": "Audio",
        "Name[eo]": "Aŭdio",
        "Name[es]": "Audio",
        "Name[eu]": "Audioa",
        "Name[fi]": "Ääni",
        "Name[fr]": "Audio",
        "Name[gl]": "Son",
        "Name[ia]": "Audio",
        "Name[id]": "Audio",
        "Name[it]": "Audio",
        "Name[ka]": "აუდიო",
        "Name[ko]": "오디오",
        "Name[nl]": "Audio",
        "Name[nn]": "Lyd",
        "Name[pl]": "Dźwięk",
        "Name[pt]": "Áudio",
        "Name[pt_BR]": "Áudio",
        "Name[ru]": "Звуковые устройства",
        "Name[sk]": "Zvuk",
        "Name[sl]": "Zvok",
        "Name[sv]": "Ljud",
        "Name[tr]": "Ses",
        "Name[uk]": "Звук",
        "Name[x-test]": "xxAudioxx",
        "Name[zh_CN]": "音频",
        "Name[zh_TW]": "音效"
    },
    "X-DocPath": "kcontrol/audiodevice/index.html",
    "X-KDE-System-Settings-Parent-Category": "hardware",
    "X-KDE-Weight": 40
}
